^E:\PROJECT\MOSALASAT\MOSALASAT\FORM1.RESX|E:\PROJECT\MOSALASAT\MOSALASAT\MY PROJECT\RESOURCES.RESX
E:\PROJECT\MOSALASAT\MOSALASAT\OBJ\DEBUG\WINDOWSAPPLICATION1.FORM1.RESOURCES
E:\PROJECT\MOSALASAT\MOSALASAT\OBJ\DEBUG\WINDOWSAPPLICATION1.RESOURCES.RESOURCES
